Kaggle - House Prices
…
skimr::skim_to_wide(d[, col_is_factor])

## # A tibble: 50 x 8
##    type   variable missing complete n     n_unique top_counts       ordered
##    <chr>  <chr>    <chr>   <chr>    <chr> <chr>    <chr>            <chr>  
##  1 factor Alley    0       2919     2919  3        "     NA: 2721,~ FALSE  
##  2 factor BldgType 0       2919     2919  5        " 1Fa: 2425, Tw~ FALSE  
##  3 factor BsmtCond 0       2919     2919  5        "     TA: 2606,~ FALSE  
##  4 factor BsmtExp~ 0       2919     2919  5        "    No: 1904, ~ TRUE   
##  5 factor BsmtFin~ 0       2919     2919  7        " Unf: 851, GLQ~ TRUE   
##  6 factor BsmtFin~ 0       2919     2919  7        "   Unf: 2493, ~ TRUE   
##  7 factor BsmtQual 0       2919     2919  5        "    TA: 1283, ~ TRUE   
##  8 factor Central~ 0       2919     2919  2        "              ~ FALSE  
##  9 factor Conditi~ 0       2919     2919  9        "  Nor: 2511, F~ FALSE  
## 10 factor Conditi~ 0       2919     2919  8        "     Nor: 2889~ FALSE  
## # ... with 40 more rows
…
